{
  "project_info": {
    "project_number": "1078408644713",
    "project_id": "findix-app",
    "storage_bucket": "findix-app.appspot.com"
  },
  "client": [
    {
      "client_info": {
        "mobilesdk_app_id": "1:1078408644713:android:b9541fd51055774c4abaf8",
        "android_client_info": {
          "package_name": "com.planb.findix_app"
        }
      },
      "oauth_client": [
        {
          "client_id": "1078408644713-tcefkqquclommu1kbb6gssj9t8qm51t1.apps.googleusercontent.com",
          "client_type": 1,
          "android_info": {
            "package_name": "com.planb.findix_app",
            "certificate_hash": "0be4deca017f7db88a418589ec47c4e63280f5e4"
          }
        },
        {
          "client_id": "1078408644713-7pqmalc3dub78ns8p0nmvv981p3mqcva.apps.googleusercontent.com",
          "client_type": 3
        }
      ],
      "api_key": [
        {
          "current_key": "AIzaSyAvFtfBr9HvlWg75taC4CIc2xm3zpjLUmg"
        }
      ],
      "services": {
        "appinvite_service": {
          "other_platform_oauth_client": [
            {
              "client_id": "1078408644713-7pqmalc3dub78ns8p0nmvv981p3mqcva.apps.googleusercontent.com",
              "client_type": 3
            }
          ]
        }
      }
    }
  ],
  "configuration_version": "1"
}